Survey Factors
…
##                  Df      Sum Sq   Mean Sq F value Pr(>F)
## Sunset_Relative   1   297518769 297518769   0.501   0.48
## Residuals       123 73017436299 593637693

###Scots Bay Peak Biomass

## # A tibble: 25 × 6
## # Groups:   Month [5]
##    Survey_Date  Year Julian Ground DFO_Turnover_Adjusted Month 
##    <date>      <dbl>  <int> <chr>                  <dbl> <chr> 
##  1 1999-07-25   1999    205 SB                     24335 July  
##  2 2000-08-01   2000    213 SB                     91816 August
##  3 2001-07-16   2001    196 SB                     98923 July  
##  4 2002-08-21   2002    232 SB                     67749 August
##  5 2003-08-10   2003    221 SB                     71589 August
##  6 2004-08-16   2004    228 SB                     61042 August
##  7 2005-07-31   2005    211 SB                     12404 July  
##  8 2006-07-22   2006    202 SB                     21886 July  
##  9 2007-07-28   2007    208 SB                     30760 July  
## 10 2008-07-26   2008    207 SB                     13509 July  
## # ℹ 15 more rows
…
##                  Df       Sum Sq    Mean Sq F value Pr(>F)
## Sunset_Relative   1   2938946152 2938946152   1.317  0.254
## Residuals       118 263380325517 2232036657

###German Bank Peak Biomass

## # A tibble: 24 × 6
## # Groups:   Month [3]
##    Survey_Date  Year Julian Ground DFO_Turnover_Adjusted Month    
##    <date>      <dbl>  <int> <chr>                  <dbl> <chr>    
##  1 1999-09-10   1999    252 GB                    208259 September
##  2 2000-09-12   2000    255 GB                    112849 September
##  3 2001-09-13   2001    255 GB                     99932 September
##  4 2002-09-19   2002    261 GB                    133642 September
##  5 2003-08-29   2003    240 GB                    107204 August   
##  6 2004-09-16   2004    259 GB                    145400 September
##  7 2005-09-21   2005    263 GB                    110942 September
##  8 2006-08-25   2006    236 GB                    114069 August   
##  9 2007-10-05   2007    277 GB                    190288 October  
## 10 2008-10-06   2008    279 GB                    106207 October  
## # ℹ 14 more rows
…
